<?xml version="1.0" encoding="UTF-8" standalone="no"?>
<svg:svg
   xmlns:dc="http://purl.org/dc/elements/1.1/"
   xmlns:cc="http://creativecommons.org/ns#"
   xmlns:rdf="http://www.w3.org/1999/02/22-rdf-syntax-ns#"
   xmlns:svg="http://www.w3.org/2000/svg"
   xmlns:sodipodi="http://sodipodi.sourceforge.net/DTD/sodipodi-0.dtd"
   xmlns:inkscape="http://www.inkscape.org/namespaces/inkscape"
   version="1.1"
   id="Layer_1"
   x="0"
   y="0"
   width="72"
   height="72"
   viewBox="0 0 72.000004 72"
   xml:space="preserve"
   sodipodi:docname="icon-logo-htw.svg"
   inkscape:version="0.92.4 (unknown)"><svg:metadata
     id="metadata11"><rdf:RDF><cc:Work
         rdf:about=""><dc:format>image/svg+xml</dc:format><dc:type
           rdf:resource="http://purl.org/dc/dcmitype/StillImage" /><dc:title></dc:title></cc:Work></rdf:RDF></svg:metadata><svg:defs
     id="defs9" /><sodipodi:namedview
     pagecolor="#ffffff"
     bordercolor="#666666"
     borderopacity="1"
     objecttolerance="10"
     gridtolerance="10"
     guidetolerance="10"
     inkscape:pageopacity="0"
     inkscape:pageshadow="2"
     inkscape:window-width="1920"
     inkscape:window-height="986"
     id="namedview7"
     showgrid="false"
     inkscape:zoom="4.8233165"
     inkscape:cx="-32.907875"
     inkscape:cy="42.066359"
     inkscape:window-x="0"
     inkscape:window-y="27"
     inkscape:window-maximized="1"
     inkscape:current-layer="Layer_1" /><svg:path
     style="fill:#009fef;stroke-width:0.72803551;fill-opacity:0.94117647"
     d="m 13.972289,9.7915516 c -3.045603,0.00145 -5.5139239,2.4705394 -5.5144262,5.5161424 0,3.050468 2.4683262,5.52129 5.5144262,5.52129 z m 13.796361,0 c -3.046273,5.029e-4 -5.515639,2.4698694 -5.516142,5.5161424 0,3.050468 2.470042,5.52129 5.516142,5.52129 3.093853,0.06582 5.637377,-2.424165 5.637377,-5.518716 0,-3.094551 -2.543524,-5.5845404 -5.637377,-5.5187164 z m 13.792929,0 c -3.041732,0 -5.512711,2.4714974 -5.512711,5.5161424 h 5.512711 z m 13.794645,0 c -3.046111,0.00156 -5.515347,2.4700314 -5.517858,5.5161424 h 5.517858 v 5.52129 c 3.044644,0 5.516142,-2.470822 5.516142,-5.52129 -0.0013,-3.04594 -2.470202,-5.5148362 -5.516142,-5.5161424 z M 27.76865,23.584481 c -3.047109,1.01e-4 -5.516989,2.470749 -5.516142,5.517858 -0.0018,3.047779 2.468362,5.519472 5.516142,5.519573 3.048615,10e-4 5.520533,-2.470102 5.520533,-5.518715 0,-3.048614 -2.471918,-5.519721 -5.520533,-5.518716 z m 13.792929,0 v 11.037431 c 3.048615,10e-4 5.520533,-2.470102 5.520533,-5.518715 0,-3.048614 -2.471918,-5.519721 -5.520533,-5.518716 z m -27.584143,0.0018 v 5.519574 H 8.4578628 c 1.006e-4,3.04778 2.4717942,5.517937 5.5195732,5.516142 3.046103,-2.44e-4 5.51513,-2.470039 5.514427,-5.516142 0,-3.048285 -2.469054,-5.519574 -5.514427,-5.519574 z m 41.378788,5.519574 v 5.516142 c 3.044644,0 5.519574,-2.470041 5.519574,-5.516142 z m -41.383935,8.275114 c -3.047106,-5.61e-4 -5.516883,2.470753 -5.5144262,5.517858 -3.011e-4,3.045936 2.4684902,5.515496 5.5144262,5.516142 z m 13.796361,0 c -3.047777,-0.0015 -5.5186,2.470082 -5.516142,5.517858 h 5.516142 z m 13.791214,0 v 5.517858 h -5.510996 c -0.0011,3.04493 2.466067,5.514406 5.510996,5.516142 3.037517,-0.01331 5.492868,-2.479456 5.492868,-5.517 0,-3.037544 -2.455351,-5.503686 -5.492868,-5.517 z m 13.79636,0 c -3.056396,-0.01338 -5.54121,2.460577 -5.54121,5.517 0,3.056423 2.484814,5.530384 5.54121,5.517 3.037526,-0.0133 5.492891,-2.479447 5.492891,-5.517 0,-3.037553 -2.455365,-5.503698 -5.492891,-5.517 z M 13.972289,51.173982 v 11.035716 c 3.046947,-2.15e-4 5.517464,-2.469195 5.519574,-5.516142 5.88e-4,-3.04862 -2.470954,-5.520162 -5.519574,-5.519574 z m 13.79293,0 c -3.04246,0 -5.512711,2.472016 -5.512711,5.519574 0,3.044644 2.470251,5.516142 5.512711,5.516142 3.052652,0 5.52472,-2.471498 5.52472,-5.516142 h -5.52472 z m 13.79636,0 c -3.046828,0 -5.512711,2.472016 -5.512711,5.519574 0.04631,3.014384 2.50312,5.433744 5.517858,5.433744 3.014738,0 5.471553,-2.41936 5.517858,-5.433744 0,-3.047558 -2.476176,-5.519574 -5.523005,-5.519574 z m 13.794645,5.519574 v 5.516142 c 3.04594,-0.0013 5.514836,-2.470202 5.516142,-5.516142 z"
     id="path2"
     inkscape:connector-curvature="0"
     sodipodi:nodetypes="cccccccsccccccccccccccscccscccccccccccccccccccccccscssssscccccsscccscscscccc" /><script /></svg:svg>